{
  "parent": "minecraft:adventure/root",
  "criteria": {
    "obtain_null_block": {
      "conditions": {
        "items": [
          {
            "items": "wilderwild:null_block"
          }
        ]
      },
      "trigger": "minecraft:inventory_changed"
    }
  },
  "display": {
    "description": {
      "translate": "wilderwild.advancements.adventure.obtain_null_block.description"
    },
    "icon": {
      "id": "wilderwild:null_block"
    },
    "title": {
      "translate": "wilderwild.advancements.adventure.obtain_null_block.title"
    }
  },
  "requirements": [
    [
      "obtain_null_block"
    ]
  ],
  "sends_telemetry_event": true
}