{
  "type": "minecraft:crafting_shapeless",
  "category": "misc",
  "group": "chest_boat",
  "ingredients": [
    {
      "item": "minecraft:chest"
    },
    {
      "item": "wilderwild:cypress_boat"
    }
  ],
  "result": {
    "id": "wilderwild:cypress_chest_boat"
  }
}