{
  "type": "minecraft:crafting_shapeless",
  "category": "misc",
  "group": "light_gray_dye",
  "ingredients": [
    {
      "item": "wilderwild:datura"
    }
  ],
  "result": {
    "id": "minecraft:light_gray_dye"
  }
}