{
  "type": "minecraft:crafting_shapeless",
  "category": "redstone",
  "group": "wooden_button",
  "ingredients": [
    {
      "item": "wilderwild:palm_planks"
    }
  ],
  "result": {
    "id": "wilderwild:palm_button"
  }
}