{
  "type": "minecraft:crafting_shaped",
  "category": "misc",
  "group": "stone_chest",
  "key": {
    "#": {
      "item": "minecraft:cobbled_deepslate"
    },
    "_": {
      "item": "minecraft:cobbled_deepslate_slab"
    }
  },
  "pattern": [
    "___",
    "# #",
    "###"
  ],
  "result": {
    "id": "wilderwild:stone_chest"
  }
}